﻿"2000";"2001";"2002";"2003";"2004";"2005";"2006";"2007";"2008";"2009";"2010";"2011"
"Afghanistan";"0";"1";"0";"1";"25000";"3";"200000";"1";"600000";"1";"1200000";"1";"2520366";"1";"4668096";"4";"7898909";"1";"10500000";"2";"13000000";"2";"17558265";"5"
"Albania";"29791";"";"392650";"";"851000";"";"1100000";"";"1259590";"";"1530244";"";"1909885";"";"2322436";"6";"1859632";"7,8";"2463741";"8";"2692372";"8";"3100000";"9"
"Algeria";"86000";"10";"100000";"10";"450244";"10";"1446927";"10";"4882414";"11";"13661355";"11";"20997954";"11";"27562721";"11";"27031472";"11";"32729824";"11";"32780165";"12";"35615926";"12"
"American Samoa";"1992";"";"2156";"";"2036";"";"2100";"";"2250";"";"";"";"";"";"";"";"";"";"";"";"";"";"";""
"Andorra";"23543";"";"29429";"";"32790";"";"51893";"";"58366";"";"64560";"";"69004";"";"63503";"13";"64202";"13";"64549";"13";"65495";"14";"65044";"14"
"Angola";"25806";"15";"75000";"17";"140000";"17";"350000";"17";"740000";"17";"1611118";"17";"3054620";"16,17";"4961536";"17";"6773356";"17";"8109421";"17";"8909200";"2";"9491000";"2"
"Anguilla";"2163";"18";"1773";"18";"3042";"19";"4427";"19";"7229";"18,20";"13061";"18,20";"17150";"19";"23526";"21";"26484";"21";"24820";"21";"25695";"22";"26019";"22"
"Antigua and Barbuda";"22000";"23";"25000";"24,23";"38205";"25";"46100";"2";"54000";"23";"86000";"23";"110177";"23";"112381";"23";"136592";"23";"134925";"26,27";"167970";"28";"162773";"28"
"Argentina";"6487950";"29";"6741791";"29";"6566740";"29";"7842233";"29";"13512383";"29";"22156426";"29";"31510390";"29";"40401771";"29";"46508774";"29";"52482780";"30";"53700000";"2";"55000000";"2"
"Armenia";"17486";"31";"25504";"31";"71349";"31";"114379";"31";"203309";"31";"318044";"31";"1259762";"32";"1876411";"32";"1442000";"33";"2191500";"33";"3865354";"33";"3210802";"33,34"
"Aruba";"15000";"";"53000";"";"61800";"";"69952";"";"98389";"";"103417";"";"109030";"";"113586";"35";"120806";"35";"128000";"2";"131800";"2";"";""
"Australia";"8562000";"36";"11132000";"36";"12670000";"36";"14347000";"36";"16480000";"37";"18420000";"37";"19760000";"37";"21260000";"37";"22120000";"38,39";"22200000";"38";"22500000";"38";"24490000";"40"
"Austria";"6117000";"41";"6541000";"41";"6736000";"42";"7274000";"43,42";"7992000";"42";"8665000";"42";"9281000";"42,44";"9912000";"44,45";"10816000";"45";"11434000";"45";"12241000";"46";"13022578";"46"
"Azerbaijan";"420400";"";"730000";"";"794200";"";"1057100";"";"1456523";"";"2242000";"";"3323500";"";"4519000";"47";"6548000";"47";"7757120";"47";"9100113";"48";"10120105";"49"
"Bahamas";"31524";"50";"60555";"50";"121759";"50";"122228";"50";"186007";"50";"227771";"50";"252987";"50";"373999";"50";"358050";"50,51";"358812";"52";"428377";"53";"298790";"53,54"
"Bahrain";"205727";"55";"299587";"55";"388990";"55";"443109";"55";"649764";"56";"767103";"56";"907433";"56";"1115979";"4";"1440782";"56";"1401974";"58";"1567000";"59";"1693650";"57"
"Bangladesh";"279000";"60";"520000";"2";"1075000";"62";"1365000";"62";"2781560";"62";"9000000";"62";"19130983";"62";"34370000";"61,62";"44640000";"62";"52430000";"43,62";"68650000";"63";"85000000";"2"
"Barbados";"28467";"";"53111";"";"97193";"";"140000";"";"200138";"";"206190";"";"237119";"";"257596";"64";"288662";"64";"337061";"64";"350061";"65";"347917";"66"
"Belarus";"49353";"67";"138329";"67";"462630";"67";"1118000";"68";"2239287";"68";"4099500";"68";"5960000";"68";"6960000";"68";"8128000";"32";"9686200";"68";"10332900";"69";"10694900";"69"
"Belgium";"5629000";"70";"7697000";"70";"8101777";"2";"8605834";"70";"9131705";"70";"9604695";"70";"9847375";"70";"10738121";"71";"11341704";"72,73";"11775240";"72,73";"12154041";"72,73";"12540603";"74"
"Belize";"16812";"";"39155";"";"51729";"";"60403";"";"75000";"2";"96000";"2";"118000";"2";"118314";"75";"160032";"75";"161783";"75";"194201";"75,76";"203050";"75,77"
"Benin";"55476";"78";"125000";"2";"218770";"78";"236175";"78";"459322";"78";"596267";"78";"1055727";"78";"2051776";"78";"3625366";"79";"5033349";"79";"7074914";"80";"7765206";"80"
"Bermuda";"13000";"82";"13333";"81,83";"30000";"84";"40000";"83";"49000";"83";"52720";"83";"60100";"83";"69000";"2";"79000";"2";"85000";"2";"88200";"2";"";""
"Bhutan";"0";"";"0";"";"0";"";"2255";"";"19138";"";"36000";"";"82078";"";"149439";"85";"253429";"85";"338938";"85,86";"394316";"87,86";"484189";"87,86"
"Bolivia";"582620";"88";"779917";"88";"1023333";"88";"1278844";"88";"1800789";"88";"2421402";"88";"2876143";"88";"3254410";"88";"5038600";"89";"6464390";"89";"7179293";"89";"8353273";"89"
"Bosnia and Herzegovina";"93386";"";"444711";"";"748780";"";"1074790";"";"1407441";"";"1594367";"";"1887820";"";"2450425";"90";"3179036";"90";"3257239";"90";"3110233";"91";"3171283";"91"
"Botswana";"222190";"92";"332264";"92";"332264";"92";"444978";"93";"522840";"93";"563782";"93";"823070";"93";"1151761";"93";"1485791";"93";"1874101";"93";"2363411";"94";"2900263";"94"
"Brazil";"23188171";"";"28745769";"";"34880964";"";"46373266";"";"65605000";"";"86210336";"";"99918621";"";"120980103";"95";"150641403";"95";"173959368";"95";"202944033";"96";"242231503";"96"
"British Virgin Islands";"";"";"";"";"8000";"25";"";"";"";"";"";"";"";"";"20700";"97";"23000";"97";"46006";"98";"46825";"98";"";""
"Brunei Darussalam";"95000";"99";"143004";"99";"153647";"100";"177365";"100";"202454";"100";"232900";"100";"301400";"100";"366138";"100";"398857";"100";"412882";"101";"435104";"102";"443161";"102"
"Bulgaria";"738000";"103";"1550000";"103";"2597548";"104";"3500869";"104";"4729731";"104";"6244922";"104";"8253416";"104";"9897477";"104";"10429012";"105";"10454822";"105";"10199942";"105";"10475083";"105"
"Burkina Faso";"25245";"106";"76186";"106";"111013";"106";"238094";"106";"395939";"106";"633554";"106";"1016605";"106";"1858038";"107";"3024150";"107";"3823625";"107";"5707850";"108";"7682100";"109"
"Burundi";"16320";"106";"33416";"2";"52000";"110";"64000";"110";"100560";"110";"153000";"110";"200000";"2";"270000";"111";"480584";"110";"838414";"110";"1150500";"2";"1240000";"2"
"Cambodia";"130547";"";"223458";"";"380000";"";"498388";"";"861500";"";"1062000";"";"1721650";"";"2583318";"112";"4237000";"112";"6268000";"113";"8150764";"114";"10000000";"114"
"Cameroon";"103279";"115";"417295";"115";"701507";"115";"1077000";"115";"1530868";"115";"2252508";"115";"3135946";"115";"4536000";"2";"6160893";"115";"8004120";"117";"8636652";"116";"10486614";"116"
"Canada";"8727000";"118";"10649000";"118";"11872000";"118";"13291000";"118";"15020000";"119";"17016600";"119";"18749100";"118";"20277400";"118";"22092500";"118";"23811900";"120";"24037372";"121,119";"25858318";"122"
"Cape Verde";"19729";"123";"31507";"123";"42949";"123";"53342";"123";"65780";"124";"81721";"124";"108858";"124";"152212";"2";"277670";"125";"290621";"126";"371871";"127";"396429";"127"
"Cayman Islands";"10700";"";"17000";"";"19000";"";"21040";"";"33800";"";"80945";"128,129";"92559";"128,129";"101497";"128,129";"98313";"128,130";"108699";"128,129";"99891";"128,129";"95120";"128,129"
"Central African Republic";"4967";"131";"11000";"131";"12600";"131";"40000";"131";"60000";"131";"100000";"131";"110000";"2";"200000";"2";"250000";"2";"679652";"116";"979232";"116";"1123560";"116"
"Chad";"5500";"132";"22000";"2";"34200";"132";"65000";"132";"123000";"133";"210000";"133";"466088";"133";"918356";"2";"1600000";"133";"2281320";"133";"2875304";"133";"3665661";"133"
"Chile";"3401525";"134";"5100783";"134";"6244310";"2";"7268281";"134";"9261385";"134";"10569572";"134";"12450801";"134";"13955202";"134";"14796593";"134";"16450223";"134";"19852242";"135";"22399969";"135"
"China";"85260000";"136";"144820000";"136";"206005000";"136";"269953000";"136";"334824000";"136";"393406000";"136";"461058000";"136";"547306000";"136";"641245000";"137";"747214000";"137";"859003000";"137";"986253000";"137"
"China, Hong Kong Special Administrative Region";"5447346";"138";"5776360";"138";"6395725";"138";"7349202";"138";"8213959";"138";"8544255";"138";"9444140";"138";"10751622";"139,138";"11580149";"138";"12597171";"140";"13793729";"140";"14930948";"140"
"China, Macao Special Administrative Region";"141052";"";"194475";"";"276138";"";"364031";"";"432450";"";"532758";"";"636347";"";"794323";"141";"932596";"141";"1037380";"141";"1122261";"141";"1353194";"141"
"Colombia";"2256801";"";"3265261";"";"4596594";"";"6186206";"";"10400578";"";"21849993";"";"29762715";"";"33941118";"142";"41364753";"143";"42159613";"142";"44477653";"142";"46200421";"142"
"Comoros";"0";"144";"0";"144";"0";"144";"2000";"144";"8378";"144";"15523";"145";"36877";"145";"62104";"145";"91741";"145";"122596";"145";"165278";"145";"216438";"146"
"Congo";"70000";"147";"150000";"147";"221800";"147";"330000";"147";"383653";"147";"558192";"147";"917499";"147";"1287631";"2";"1807000";"2";"2171000";"2";"3798619";"148";"3884757";"148"
"Cook Islands";"552";"149";"942";"150,149";"1499";"149,151";"3384";"149";"3650";"149";"4004";"149";"5402";"149";"6617";"149";"6674";"149";"6952";"149";"7802";"149";"9541";"149"
"Costa Rica";"211614";"152";"326944";"152";"502478";"152";"778299";"152";"923084";"152";"1101305";"152";"1443717";"152";"1508219";"152";"1886570";"152";"1950318";"152";"3035007";"153";"4358127";"153"
"Cote d'Ivoire";"472952";"154";"728545";"154";"1027058";"154";"1280696";"154";"1674332";"154";"2349439";"154";"4065421";"154";"7467708";"155";"10449036";"155";"13184308";"156";"15599044";"157";"17416379";"157"
"Croatia";"1033000";"158";"1755000";"159";"2312600";"160";"2537300";"160";"2835500";"160";"3649700";"160";"4395200";"160";"5034582";"160";"4554777";"7,8";"4675017";"8";"4928352";"8";"5115140";"161"
"Cuba";"6536";"162";"8579";"162";"17851";"162";"35356";"162";"75797";"162";"135534";"162";"152715";"162";"198252";"163";"331736";"162";"621156";"164";"1003015";"164";"1315141";"164"
"Cyprus";"218324";"";"314355";"";"417933";"";"551752";"";"658234";"";"782503";"";"867785";"";"988312";"165";"1016739";"165";"977521";"166";"1034071";"166";"1090944";"166"
"Czech Republic";"4346009";"";"6947151";"";"8610177";"";"9708683";"";"10782567";"";"11775878";"";"12406199";"";"13228631";"167";"13780165";"167";"14258404";"167,168";"12775068";"169,170";"12810000";"169"
"Democratic Republic of the Congo";"15000";"172,171";"150000";"172,171";"560000";"172,171";"1246225";"173,172";"1990722";"173,172";"2746094";"173,172";"4415470";"173,172";"6592000";"173,172";"9937622";"174,172";"9458557";"174,175";"11820348";"12";"15673123";"12"
"Denmark";"3363552";"";"3960165";"";"4477752";"";"4767100";"";"5166912";"";"5449206";"";"5828157";"";"6308000";"177,176";"6556988";"178";"6833683";"178";"6981000";"179";"7047000";"179"
"Djibouti";"230";"78";"3000";"78";"15000";"180";"23000";"";"34482";"";"44053";"";"44817";"";"69539";"181";"112848";"181";"128776";"181";"165613";"182";"193049";"182"
"Dominica";"1200";"183";"7710";"184";"12173";"184";"23786";"184";"41838";"184";"52000";"184";"71500";"184";"89000";"184";"91000";"186";"98500";"186";"105567";"185,187";"111000";"2"
"Dominican Republic";"705431";"";"1270082";"";"1700609";"";"2091914";"";"2534063";"";"3623289";"";"4605659";"";"5512859";"188";"7210483";"188";"8629815";"188";"8892783";"189";"8770780";"189"
"Ecuador";"482213";"";"859152";"";"1560861";"";"2398161";"";"3544174";"";"6246332";"";"8485050";"";"9939977";"190";"11684479";"190";"13241758";"190";"14780730";"191";"15332715";"191"
"Egypt";"1359900";"16,192";"2793800";"192";"4494700";"192";"5797530";"193";"7643060";"193";"13629602";"193";"18001106";"193";"30093673";"194";"41286662";"194";"55352233";"193";"70661005";"195";"83425145";"195"
"El Salvador";"743628";"";"857782";"";"888818";"";"1149790";"";"1832579";"";"2411753";"";"3851611";"";"6137381";"196";"6950703";"196";"7566245";"196";"7700336";"197,196";"7837000";"2"
"Equatorial Guinea";"5000";"198";"15000";"198";"32000";"199";"41500";"199";"61900";"199";"96900";"199";"120000";"2";"150000";"2";"180000";"2";"200000";"200";"399290";"201";"426000";"2"
"Eritrea";"0";"202";"0";"202";"0";"202";"0";"202";"20000";"202";"40438";"202";"61996";"202";"84348";"203";"108631";"203";"141130";"203";"185275";"204";"241939";"204"
"Estonia";"557000";"205";"651200";"205";"881000";"205";"1050241";"205";"1255731";"205";"1445300";"205";"1658700";"205";"1681849";"205";"1624465";"206";"1570538";"206";"1652809";"207,208";"1863120";"207,209"
"Ethiopia";"17757";"";"27500";"";"50369";"";"51324";"";"155534";"";"410630";"";"866700";"";"1208498";"210";"1954527";"210";"4051703";"210";"6854000";"211";"14126659";"195"
"Faeroe Islands";"16971";"";"24487";"";"34737";"";"38026";"";"41298";"";"42032";"";"49965";"";"52169";"212";"54860";"212";"56993";"212";"59446";"213";"";""
"Falkland Islands (Malvinas)";"0";"214";"0";"214";"0";"214";"0";"214";"0";"214";"766";"214,215";"2276";"214";"2979";"216";"2991";"217";"3256";"217";"3254";"217";"3348";"217"
"Fiji";"55057";"219,218";"80933";"219,218";"89900";"219,218";"109882";"220,218";"142190";"220,218";"205000";"220,218";"284661";"220,218";"530048";"220,218";"600000";"220,218";"640000";"221";"697920";"222,221";"727000";"222,221"
"Finland";"3728625";"";"4175587";"";"4516772";"";"4747126";"";"4988000";"";"5270000";"";"5670000";"";"6080000";"223";"6830000";"223";"7700000";"223";"8390000";"224";"8940000";"224"
"France";"29052360";"225";"36997400";"225";"38585300";"225";"41702000";"225";"44544000";"225";"48088000";"225";"51662000";"225";"55358100";"225";"57972000";"225";"59600000";"226";"63200000";"226";"66300000";"226"
"French Polynesia";"39900";"";"67300";"";"52250";"";"60100";"";"96000";"";"120000";"";"152000";"";"174847";"227";"187146";"227";"208261";"227";"215890";"228";"222827";"229"
"Gabon";"120000";"230,231";"150000";"230,231";"279289";"232,231";"300000";"232,231";"489367";"232,231";"736690";"232,231";"897987";"232,231";"1169000";"232,231";"1300000";"2,231";"1373000";"2";"1610000";"233";"1800000";"2"
"Gambia";"5600";"234";"55085";"235";"100000";"235";"149300";"235";"175000";"235";"247478";"236";"404345";"236";"800371";"236";"1166136";"236";"1312874";"237";"1478347";"237";"1581000";"2"
"Georgia";"194741";"238";"301327";"238";"503619";"238";"711224";"238";"840645";"238";"1174308";"238";"1703888";"238";"2599714";"238";"2755087";"238";"2837000";"2";"3980000";"240,239";"4430613";"240"
"Germany";"48202000";"241";"56126000";"241";"59128000";"241";"64800000";"241";"71322000";"241";"79271000";"241";"85652000";"241,242";"96232925";"241,243";"105523065";"244,243";"105000000";"241,243";"104560000";"244,243";"108700000";"244,243"
"Ghana";"130045";"";"243797";"";"386775";"";"795529";"";"1695000";"";"2874560";"";"5207242";"";"7604053";"245";"11570430";"245";"15108916";"246";"17436949";"246";"21165843";"246"
"Greece";"5932403";"247";"7963742";"247";"9314260";"247,248";"8936202";"247";"9324335";"247";"10260396";"247";"10979826";"247";"12294912";"247";"13799340";"247";"13295093";"247";"12292716";"249";"12127985";"249"
"Greenland";"15114";"";"15882";"";"19924";"";"29749";"";"39033";"";"46480";"";"53900";"";"66400";"250";"55816";"250";"53468";"250";"57349";"251";"58742";"251"
"Grenada";"4300";"";"6414";"";"7553";"";"42293";"";"43313";"";"46858";"";"46193";"252,253";"51381";"252,253";"60022";"252,253";"114424";"185";"121946";"185";"";""
"Guam";"27200";"254";"32600";"254";"70500";"254";"79800";"254";"98000";"254";"";"";"";"";"";"";"";"";"";"";"";"";"";""
"Guatemala";"856831";"";"1146441";"";"1577085";"";"2034776";"";"3168256";"";"4510067";"";"7178745";"";"11897563";"255";"14948640";"256";"17307459";"256";"18067970";"256";"20715677";"256"
"Guinea";"42112";"257";"55670";"257";"90772";"257";"111500";"257";"154900";"257";"189000";"257";"";"";"2000000";"257";"2750000";"2";"3489000";"111";"4000000";"258";"4500000";"2"
"Guinea-Bissau";"0";"";"0";"";"0";"";"1275";"";"39451";"";"98825";"";"157330";"";"296223";"259";"500156";"259";"560345";"259";"";"";"401880";"2"
"Guyana";"39830";"260";"75320";"260";"79400";"260";"137955";"260";"171656";"260";"281368";"260";"400000";"2";"538774";"260";"447769";"261";"513533";"261";"555397";"261";"518757";"261,262"
"Haiti";"55000";"263";"91500";"263";"140000";"263";"320000";"263";"400000";"263";"500200";"2";"1200000";"263";"2500000";"263";"3200000";"2";"3648000";"2";"4000000";"263";"4200000";"2"
"Honduras";"155271";"264";"237629";"264";"326508";"265";"379362";"265";"707201";"265";"1281462";"265";"2240756";"265";"4184834";"265";"6210711";"265";"8390755";"266";"9505071";"267";"8062229";"267,268"
"Hungary";"3076279";"269";"4967430";"269";"6886111";"269";"7944586";"269";"8727188";"269,270";"9320000";"269";"9965720";"269";"11029930";"269";"12224163";"269";"11792475";"269";"12011823";"271";"11689937";"271"
"Iceland";"214896";"272";"248131";"272";"260438";"2";"279670";"272";"290068";"273";"283108";"273";"301922";"273";"326098";"273";"336922";"274,275";"339715";"274,275";"341077";"274";"344085";"274"
"India";"3577095";"276";"6540000";"276";"13000000";"276";"33690000";"276";"52220000";"276";"90140000";"276";"166050000";"276";"233620000";"61,276";"346890000";"61,277";"525090000";"61,277";"752190000";"61,277";"893862478";"278,279"
"Indonesia";"3669327";"280";"6520947";"280";"11700000";"280";"18495251";"280";"30336607";"280";"46909972";"280";"63803015";"280";"93386881";"280";"140578243";"280,281";"163676961";"211,282";"211290235";"211";"236799493";"211"
"Iran (Islamic Republic of)";"962595";"283";"2087353";"283";"2279143";"283";"3449876";"284";"5075678";"284";"8510513";"285,284";"15385289";"284";"29770000";"284";"43000000";"284";"52555000";"2";"54051764";"286";"56043006";"286"
"Iraq";"0";"287";"0";"287";"20000";"288,287";"80000";"287";"574000";"287";"1533000";"289";"9345371";"290";"14021232";"291";"17529000";"291";"20116876";"292";"23264408";"292";"25519000";"2"
"Ireland";"2461000";"293";"2970000";"293";"3000000";"293";"3500000";"293";"3860000";"293";"4270000";"293";"4690135";"293";"4970719";"293,294";"5048127";"293,295";"4704497";"296,297";"4701474";"296,298";"4906352";"296,299"
"Israel";"4400000";"";"5500621";"";"6300008";"";"6618367";"";"7221955";"";"7757000";"";"8403765";"";"8902000";"2";"8982000";"300";"9022000";"2";"9111000";"2";"9200000";"300"
"Italy";"42246000";"301";"51246000";"301";"54200000";"43,301";"56770000";"301,302";"62750000";"301";"71500000";"301";"80418000";"301";"89801000";"303";"90341000";"303";"88024000";"304";"90600000";"304,305";"92300000";"304"
"Jamaica";"366952";"306";"597826";"307";"1244976";"308";"1576360";"308";"1837552";"308";"1981464";"308";"2274650";"308";"2684331";"308";"2723323";"309";"2956061";"309";"3181995";"309";"2974715";"309"
"Japan";"66784374";"310,311";"74819158";"310,311";"81118324";"310,311";"86655000";"310,311";"91474000";"310,311";"96484000";"310,311";"99826000";"312,311";"107339000";"313,311";"110394996";"314,315";"116295378";"314,316";"123287125";"314,315";"129868418";"314"
"Jordan";"388949";"317";"865627";"317";"1219597";"317";"1325313";"317";"1624110";"317";"3137700";"317";"4343100";"317";"4771641";"317";"5313564";"317";"6014366";"317";"6620000";"318";"7482561";"98"
"Kazakhstan";"197300";"";"582000";"";"1027000";"";"1330730";"";"2447000";"";"5398000";"";"7775737";"";"12322676";"319";"14910573";"320";"17063200";"321";"19402600";"322";"23102700";"323"
"Kenya";"127404";"324,81";"600000";"324";"1187122";"324,81";"1590785";"324";"2546157";"324";"4611970";"324";"7340317";"324";"11349412";"324";"16303573";"324";"19364559";"324";"24968891";"324";"26980771";"324"
"Kiribati";"300";"325";"395";"325";"495";"325";"526";"325";"615";"325";"650";"325";"700";"2,326";"750";"2";"1000";"2";"9907";"327";"10595";"327";"13788";"327"
"Korea, Democratic People's Republic of";"0";"328";"0";"328";"0";"328";"0";"328";"0";"328";"0";"328";"0";"328";"0";"328";"0";"328";"69261";"281,329";"431919";"329";"1000000";"2"
"Korea, Republic of";"26816398";"330";"29045596";"330";"32342493";"330";"33591758";"330";"36586052";"330";"38342323";"330";"40197115";"330";"44369165";"331";"45606984";"332";"47944222";"332";"50767241";"332";"52506793";"332"
"Kuwait";"476000";"1";"877920";"1";"1227000";"1";"1420000";"1";"2000000";"1";"2277000";"1";"2530000";"1";"2773688";"290";"2907000";"2";"3876000";"2";"4400000";"2";"";""
"Kyrgyzstan";"9000";"";"27000";"";"53084";"";"138279";"";"263375";"";"541652";"";"1261757";"";"2168329";"333";"3394016";"333";"4487123";"334";"5275477";"334";"5653000";"2"
"Lao People's Democratic Republic";"12681";"";"29545";"";"55160";"";"112275";"";"204191";"";"657528";"";"1009565";"";"1478409";"335";"2022133";"335";"3234642";"335";"4003395";"336";"5480851";"114"
"Latvia";"401272";"";"656835";"";"917196";"";"1219550";"";"1536712";"";"1871602";"";"2183696";"";"2217008";"2";"2298610";"337";"2303600";"337";"2306100";"2";"2309000";"2"
"Lebanon";"743000";"2";"766754";"2";"775104";"2";"795460";"2";"884445";"2";"993557";"2";"1106431";"2";"1260000";"163";"1427000";"2";"2390317";"338";"2874766";"339";"3350000";"2"
"Lesotho";"21600";"340";"57000";"340";"137953";"341";"125950";"341";"196213";"341";"249786";"341";"357913";"341";"456000";"2";"593216";"341";"661000";"2";"987448";"342";"1051000";"2"
"Liberia";"1500";"343";"2000";"343";"5000";"343";"47250";"2";"94370";"343";"160000";"343";"280000";"2";"563000";"2";"854627";"345,344";"1085062";"345,344";"1571308";"345,346";"2029926";"345,347"
"Libyan Arab Jamahiriya";"40000";"31";"50000";"31";"70000";"31";"127000";"31";"500000";"31";"2000000";"31";"3927562";"31";"4500000";"2";"7379115";"348";"9534091";"348";"10900000";"2";"10000000";"2"
"Liechtenstein";"10000";"349";"11000";"349";"11402";"349";"25000";"349";"25500";"349";"27503";"349";"28755";"349";"32013";"349";"34000";"2";"35000";"2";"35500";"2";"36970";"350"
"Lithuania";"524000";"351,352";"1017999";"351,352";"1645568";"353,352";"2102207";"353,352";"3051160";"353,352";"4353447";"353,352";"4718215";"353,352";"4912077";"353,352";"5022638";"353,352";"4961499";"353,352";"4890979";"354,352";"5004150";"355"
"Luxembourg";"303274";"356,357";"409064";"358,357";"473000";"2,357";"539000";"358,357";"470000";"358,359";"510000";"358";"713000";"358";"684500";"358";"707000";"358";"720000";"358";"727000";"358";"764973";"360"
"Madagascar";"63094";"361";"147500";"361";"163010";"361";"283666";"361";"333888";"361";"510269";"361";"1045888";"361";"2217612";"361";"4835239";"362";"6283799";"363";"7711721";"364";"8159599";"364"
"Malawi";"49000";"365";"55730";"366";"86047";"366";"135114";"366";"222135";"366";"421163";"366";"620163";"2";"1050852";"366";"1507684";"367";"2485646";"367";"3117364";"367";"3855760";"367"
"Malaysia";"5121748";"";"7385000";"";"9053000";"";"11124000";"";"14611000";"";"19545000";"";"19463722";"";"23347000";"368";"27713000";"368";"30144000";"369";"33859000";"370";"36661261";"370"
"Maldives";"7638";"";"18894";"";"41899";"";"66466";"";"113246";"";"203620";"";"271053";"";"313539";"371";"435627";"371";"457770";"371";"494351";"372";"530449";"372"
"Mali";"10398";"";"23997";"";"45974";"";"247223";"";"406861";"";"761986";"";"1512948";"";"2530891";"373";"3438568";"374";"4460543";"374";"7440383";"374";"10821930";"374"
"Malta";"114444";"";"239416";"";"276859";"";"289992";"";"306067";"";"323980";"";"346771";"";"368530";"375";"385636";"376";"422083";"376";"455579";"375";"521748";"375"
"Marshall Islands";"447";"377";"489";"377";"552";"377";"598";"377";"644";"377";"660";"377";"1000";"2";"1500";"2";"2000";"2";"3000";"2";"3800";"2";"";""
"Mauritania";"15300";"230";"110463";"230";"247238";"378";"350954";"378";"522400";"378";"745615";"378";"1060122";"378";"1413967";"378";"2091992";"378";"2182249";"378";"2744978";"379";"3283371";"379"
"Mauritius";"180000";"380";"272416";"380";"347532";"380";"462405";"381";"547745";"380";"656828";"380";"772395";"380";"928622";"381";"1033300";"381";"1086748";"381";"1190900";"382";"1294100";"382"
"Mayotte";"0";"383,384";"0";"383";"20300";"383";"33200";"383";"48100";"383";"";"";"";"";"";"";"";"";"";"";"";"";"";""
"Mexico";"14077880";"";"21757559";"";"25928266";"";"30097700";"";"38451135";"";"47128746";"";"55395461";"";"66559462";"385";"75303469";"386";"83193574";"386";"91362753";"387,386";"94565305";"387,386"
"Micronesia, Federated States of";"0";"388";"0";"388";"100";"151";"5869";"388";"12782";"388";"14094";"388";"18616";"388";"27436";"388";"27500";"2";"27500";"2";"27518";"389";"";""
"Monaco";"13927";"";"14302";"";"14874";"";"15081";"";"15750";"";"17191";"";"18307";"";"20400";"390";"22000";"2";"23000";"2";"23414";"391";"30400";"392"
"Mongolia";"154600";"393";"195000";"393";"216000";"394";"319000";"394";"428695";"394";"557207";"394";"774900";"395";"1194583";"395";"1763178";"395";"2249023";"395";"2510470";"396";"2942313";"396"
"Montenegro";"";"";"";"";"";"";"";"";"483766";"397";"543220";"397";"643681";"397";"703000";"2";"1158032";"397";"1294167";"397";"1170000";"2";"";""
"Montserrat";"489";"";"1200";"";"1500";"";"1800";"";"2180";"";"";"";"4320";"";"3558";"1";"3000";"2";"3050";"398";"4200";"398";"4200";"399"
"Morocco";"2342000";"400";"4771739";"400";"6198670";"400";"7359870";"400";"9336878";"400";"12392805";"400";"16004731";"400";"20029300";"400";"22815694";"400";"25310761";"400";"31982279";"401";"36553943";"401"
"Mozambique";"51065";"";"152652";"";"254759";"";"435757";"";"708000";"";"1503943";"";"2339317";"";"3079783";"402";"4405006";"402";"5970781";"402";"7224176";"403";"7855345";"403"
"Myanmar";"13397";"404";"22671";"404";"47982";"404";"66517";"404";"92452";"404";"128700";"404";"214214";"404";"247641";"405";"367388";"405";"502005";"406";"594000";"2";"1243619";"406"
"Namibia";"82000";"407";"106600";"407";"150000";"61,408";"223671";"408";"286095";"408";"448857";"408";"608846";"408";"800270";"408";"1052000";"408";"1217000";"2";"1534528";"410,409";"2439281";"411"
"Nauru";"1200";"2";"1500";"2";"";"";"";"";"";"";"";"";"";"";"";"";"";"";"";"";"6200";"413,412";"6700";"413,414"
"Nepal";"10226";"415";"17286";"61,415";"21881";"415";"81867";"416";"116778";"416";"227316";"416";"1157102";"416";"3268895";"416,417";"4200000";"416";"5597880";"419,418";"9195562";"419";"13354477";"61,419"
"Netherlands";"10755000";"";"12200000";"";"12100000";"";"13200000";"";"14800000";"";"15834000";"";"17296000";"";"19285000";"420";"20627000";"420";"20149000";"421";"19179000";"421,422";"19835000";"421,423"
"Netherlands Antilles";"";"";"";"";"";"";"200000";"424";"200000";"424";"";"";"";"";"";"";"";"";"";"";"";"";"";""
"New Caledonia";"49948";"230";"67917";"230";"80000";"230";"97113";"230";"116443";"230";"134265";"230";"155000";"2";"176350";"230";"196474";"230";"209595";"425";"220811";"426";"227310";"426"
"New Zealand";"1542000";"427";"2288000";"427";"2449000";"427";"2599000";"427";"3027000";"428";"3530000";"428";"3802290";"428";"4251207";"428,429";"4620000";"43,430";"4700000";"428,431";"4710000";"303,432";"4820000";"303,432"
"Nicaragua";"90294";"";"164509";"";"237248";"";"466706";"";"738624";"";"1119379";"433";"1830220";"433";"2502281";"433";"3108002";"433";"3344563";"434";"3962247";"434";"4822221";"434"
"Niger";"2056";"435";"2126";"435";"57541";"435";"82365";"435";"172421";"435";"323853";"436";"483000";"436";"900000";"2,437";"1897628";"438";"2599000";"2,439";"3805592";"440";"4339867";"440"
"Nigeria";"30000";"441";"266461";"441";"1569050";"442";"3149473";"442";"9147209";"442";"18587000";"442";"32322202";"442";"40395611";"442,443";"62988492";"442";"74518264";"444";"87297789";"444";"95167308";"444"
"Niue";"410";"";"400";"";"490";"";"600";"";"650";"";"";"";"";"";"";"";"";"";"";"";"";"";"";""
"Northern Mariana Islands";"3000";"445";"13200";"445";"17137";"445";"18619";"445";"20474";"445";"";"";"";"";"";"";"";"";"";"";"";"";"";""
"Norway";"3224000";"446";"3593000";"446";"3790000";"2";"4060829";"446";"4524750";"446";"4754453";"446";"4868916";"447";"5037650";"447";"5211207";"448";"5359640";"448";"5648673";"449";"5750000";"2"
"Occupied Palestinian Territory";"7076";"450";"175941";"450";"251602";"450";"264091";"450";"436628";"450";"567584";"450";"821800";"450";"1021481";"450";"1314406";"450";"1800000";"450";"";"";"";""
"Oman";"162000";"";"323000";"";"463000";"";"594000";"";"806280";"";"1333225";"";"1818024";"";"2500000";"56";"3219349";"56";"3970563";"56";"4606133";"451";"4809248";"451"
"Pakistan";"306493";"452";"742606";"452";"1698536";"453";"2404400";"453";"5022908";"453";"12771203";"453";"34506557";"453";"62856712";"61,453";"88019742";"453";"94342030";"453";"99185844";"454";"108894518";"454"
"Palau";"";"";"";"";"2458";"";"3924";"";"3924";"";"6051";"";"8346";"";"10691";"455";"11667";"456";"12744";"456";"14512";"456";"15445";"456,457"
"Panama";"410401";"";"475141";"";"525845";"";"692406";"";"1259948";"";"1748740";"";"2174451";"";"3010635";"458";"3915246";"459";"6066683";"459";"6646348";"459,460";"7281074";"459,461"
"Papua New Guinea";"8560";"462";"10700";"462";"15000";"462";"17500";"462";"48311";"462";"75000";"462";"100000";"2";"300000";"462,463";"874000";"464,465";"1417546";"464,465";"1909078";"464,465";"2400000";"2"
"Paraguay";"820810";"466";"1150000";"466";"1667018";"466";"1770345";"466";"1749048";"466";"1887000";"466";"3232842";"466";"4694361";"163";"5790759";"467";"5618639";"466,468";"5920858";"469";"6529053";"469"
"Peru";"1273857";"";"1793284";"";"2306943";"";"2930343";"";"4092558";"";"5583356";"";"9120000";"2";"15417247";"470";"20951834";"470";"24700361";"470";"29115149";"472,471";"32461415";"472,471"
"Philippines";"6454359";"473";"12159163";"473";"15383001";"473";"22509560";"473";"32935875";"473";"34778995";"473";"42868911";"473";"57344815";"473";"68117167";"473";"75586646";"474";"79895646";"474";"87256359";"474"
"Poland";"6747000";"475";"10004661";"475";"13898471";"2";"17401222";"2";"23096065";"475";"29166391";"475";"36745454";"475";"41388774";"475";"43926365";"476";"44806632";"476";"46952111";"476";"49200000";"2"
"Portugal";"6664951";"477";"7977537";"477";"8670000";"478";"10002705";"478";"10571100";"478";"11447313";"478";"12226439";"478";"13477414";"479";"14049187";"480";"11795080";"480,481";"12210377";"480";"12284594";"480"
"Puerto Rico";"1318099";"482";"1628161";"482";"1646932";"482";"1709062";"482";"1847927";"482";"1993465";"482";"2198845";"482";"2431512";"483";"2543587";"483,484";"2712220";"485,484";"2933988";"486,484";"3108372";"486,487"
"Qatar";"120856";"";"177929";"";"266703";"488";"376535";"488";"490333";"488";"716763";"488";"919773";"488";"1264206";"489,488";"1429486";"489,490";"1948770";"489,490";"2186415";"489,491";"2302290";"489,492"
"Republic of Moldova";"139000";"31";"225000";"31";"338225";"31";"475942";"493";"787000";"493";"1089800";"493";"1358152";"493";"1882830";"493";"2423416";"493";"2784832";"493";"3165052";"494";"3714965";"494"
"Romania";"2499000";"495";"3845116";"495";"5110591";"496";"7039898";"496";"10215388";"496";"13354138";"496";"15991000";"496,497";"20400000";"498,497";"24470000";"498,497";"25100000";"499";"24400000";"499";"23400000";"499,500"
"Russian Federation";"3263200";"501";"7750499";"501";"17608756";"501";"36135135";"501";"73722222";"501";"120000000";"502";"150674000";"2,503";"171200000";"32";"199522340";"32";"230499533";"504";"237689224";"504";"256116581";"504"
"Rwanda";"39000";"505";"65000";"505";"82391";"505";"130720";"506";"137271";"506";"222978";"506";"314201";"506";"635137";"506";"1322637";"506";"2429252";"506";"3548761";"507";"4446194";"508"
"Saint Kitts and Nevis";"1200";"509";"2100";"510";"5000";"509";"22000";"509";"29000";"509";"51000";"61,509";"51000";"511";"64500";"511";"74500";"186";"75500";"186";"80000";"186";"";""
"Saint Lucia";"2500";"512";"2700";"512";"14313";"512";"99000";"512";"101000";"512";"105656";"512";"105600";"513";"147000";"185";"175045";"185";"189738";"185";"198212";"185";"216530";"185"
"Saint Vincent and the Grenadines";"2361";"514";"7492";"514";"9982";"515";"62911";"515";"72000";"515";"70620";"515";"87634";"515";"110491";"515";"130098";"515";"121114";"515,516";"131791";"517";"131809";"517"
"Samoa";"2500";"518";"2500";"518";"2700";"518";"10500";"518";"16000";"518";"24000";"518";"45500";"518";"86000";"519,520";"124000";"2";"151000";"2";"167400";"2";"";""
"San Marino";"14503";"";"15854";"";"16759";"";"16900";"";"17085";"";"17150";"";"17390";"";"17500";"521";"24402";"521";"29949";"522";"30587";"521";"35465";"522"
"Sao Tome and Principe";"0";"";"0";"";"1980";"";"4819";"";"7745";"";"11953";"";"18424";"";"30099";"523";"50451";"524";"64000";"2";"102730";"524";"115038";"524"
"Saudi Arabia";"1375881";"";"2528640";"";"5007965";"2";"7238224";"";"9175764";"";"14164184";"";"19700000";"";"28400000";"525";"36000000";"525";"44864355";"525";"51564375";"526";"53705808";"526"
"Senegal";"250251";"";"301811";"";"553449";"";"782423";"";"1121314";"";"1730106";"";"2982623";"";"3630804";"527";"5389133";"527";"6901492";"527";"8343717";"528";"9352868";"528"
"Serbia";"";"";"";"";"";"";"";"";"4729629";"529";"5510690";"529";"6643722";"529";"8452642";"530";"9618767";"530";"9912339";"530";"9915348";"531";"10182023";"531"
"Seychelles";"25961";"532";"36683";"532";"44731";"532";"49229";"532";"54369";"532";"58806";"532";"70340";"532";"77278";"532,533";"93476";"535,534";"110668";"536,537";"117587";"539,538";"126594";"539,540"
"Sierra Leone";"11940";"541";"26895";"541";"67000";"541";"113214";"2";"";"";"";"";"";"";"776000";"2";"1008800";"541";"1160000";"2";"2000000";"543,542";"2137000";"2"
"Singapore";"2747400";"544";"2991600";"544";"3313000";"544";"3577000";"544";"3990700";"544,81";"4384600";"544";"4788600";"544";"5924100";"544";"6414800";"544";"6879800";"545";"7384600";"545";"7755200";"545,546"
"Slovakia";"1243736";"548,547";"2147331";"548,547";"2923383";"548,547";"3678774";"548,547";"4275164";"548,547";"4540374";"548,547";"4893232";"548,547";"6068063";"548,547";"5520043";"548,549";"5497719";"548";"5925012";"550";"5983059";"550"
"Slovenia";"1215601";"31";"1470085";"551";"1667234";"551";"1739146";"551";"1848637";"552";"1759232";"552,553";"1819572";"552";"1928412";"552";"2054899";"552";"2100435";"552";"2121950";"554";"2168548";"554"
"Solomon Islands";"1151";"555";"967";"555";"999";"555";"1060";"555";"3000";"555";"6000";"555";"7000";"2";"10900";"2,326";"30000";"2";"50000";"2";"150000";"2";"274872";"556"
"Somalia";"80000";"328";"85000";"328";"100000";"328";"200000";"2";"500000";"328";"500000";"328";"550000";"2";"600000";"2";"627000";"2";"641000";"2";"648200";"2";"655000";"2"
"South Africa";"8339000";"557";"10787000";"558";"13702000";"558";"16860000";"558";"20839000";"558";"33959958";"558";"39662000";"558";"42300000";"558,559";"45000000";"558";"46436000";"2";"50372000";"560";"64000000";"2"
"Spain";"24265059";"561";"29655729";"561";"33530997";"562";"37219839";"562";"38622582";"562";"42694115";"562";"45695061";"562";"48422470";"562";"49623339";"563";"51083880";"563";"51601028";"563";"53066828";"563"
"Sri Lanka";"430202";"";"667662";"";"931403";"";"1393403";"";"2211158";"";"3361775";"";"5412496";"";"7983489";"564";"11082454";"564";"16305417";"565";"17359312";"565";"18319447";"565"
"Sudan";"23000";"567,566";"103846";"567,566";"190778";"567,566";"527233";"567";"1048558";"567";"1827940";"567,566";"4683127";"568,567";"8218092";"569,567";"11991469";"569,567";"15339895";"569";"18093231";"570";"25107343";"570"
"Suriname";"41048";"";"87000";"";"108363";"";"168522";"";"212819";"";"232785";"";"320000";"";"380000";"2";"657106";"2";"763912";"571";"890000";"2";"947000";"2"
"Swaziland";"33000";"572";"55000";"572";"68000";"572";"85000";"2";"145000";"572";"200000";"572";"250000";"572";"380000";"2";"531643";"572";"664432";"573";"725802";"573";"766540";"574"
"Sweden";"6372300";"575";"7178000";"575";"7949000";"575";"8801000";"575";"8785000";"16,575";"9104000";"575";"9607000";"575";"10116852";"575";"10014000";"576";"10440000";"576";"10885406";"576";"11194000";"577,578"
"Switzerland";"4638519";"579";"5275791";"579";"5736303";"579";"6189000";"579";"6274763";"579";"6834233";"579";"7436157";"579";"8208884";"579";"8896706";"580";"9322580";"581";"9644157";"581";"10017000";"582,581"
"Syrian Arab Republic";"30000";"583";"200000";"584";"400000";"584";"1185000";"584";"2346000";"584";"2950000";"584";"4675000";"584";"6234682";"584";"7056158";"584";"10021861";"585";"11799212";"585";"13117253";"585"
"Tajikistan";"1160";"";"1630";"";"13200";"";"47617";"";"135000";"";"265000";"";"2150000";"";"2132770";"586";"3673520";"32";"4900000";"2";"5940842";"587";"6324000";"2"
"Thailand";"3056000";"";"7550000";"";"10171550";"";"21828181";"";"27378659";"";"31136541";"";"40723181";"";"52973994";"588";"61837164";"588";"65952313";"588";"71624172";"588";"78667910";"588"
"The former Yugoslav Republic of Macedonia";"115748";"589";"223275";"589";"365346";"589";"776000";"589";"985600";"589";"1131006";"590";"1263841";"590";"1794433";"590";"1967531";"590";"1943216";"590";"2153425";"591";"2257118";"591"
"Timor-Leste";"";"";"";"";"";"";"20058";"592";"25722";"592";"33072";"592";"49100";"2";"78215";"592,520";"125002";"593";"350891";"593";"600600";"2";"614151";"593"
"Togo";"50000";"594";"95000";"594";"165138";"595";"243613";"595";"332565";"595";"433635";"595";"708000";"595";"1190319";"595";"1549542";"595";"2187334";"595";"2452433";"596";"3104839";"596"
"Tokelau";"0";"";"0";"";"";"";"0";"";"0";"";"0";"";"";"";"";"";"";"";"";"";"";"";"";""
"Tonga";"180";"2";"236";"2";"3354";"2";"11200";"2";"16400";"2";"29872";"2";"30051";"2";"46525";"597";"50472";"597";"53000";"2";"54300";"2";"55000";"598"
"Trinidad and Tobago";"161860";"599";"256106";"599";"262772";"599";"336352";"599";"651189";"600";"924100";"600";"1518800";"600";"1509800";"600,601";"1806120";"602";"1846345";"602";"1894240";"603";"1825200";"603"
"Tunisia";"119165";"";"389208";"";"574334";"";"1917530";"";"3735695";"";"5680726";"";"7339047";"";"7842619";"604";"8602164";"604";"9797026";"605";"11114206";"606";"12387656";"607"
"Turkey";"16133405";"";"19572897";"";"23323118";"";"27887535";"";"34707549";"";"43608965";"";"52662700";"";"61975807";"608";"65824110";"608";"62779554";"608";"61769635";"609";"65321745";"609"
"Turkmenistan";"7500";"1";"8173";"32";"8173";"1";"9187";"1";"50100";"1";"105000";"2";"216868";"2,610";"381670";"32";"1135150";"32";"2132890";"300";"3197624";"300";"3511000";"2"
"Turks and Caicos Islands";"";"";"";"";"9052";"";"19361";"";"25085";"";"";"";"";"";"";"";"";"";"";"";"";"";"";""
"Tuvalu";"0";"";"0";"";"0";"";"0";"";"500";"";"1300";"";"1600";"";"1800";"611";"";"";"1000";"611,612";"1600";"611";"2130";"611"
"Uganda";"126913";"613";"283520";"613";"393310";"613";"776169";"613";"1165035";"613";"1315300";"613";"2008818";"613";"4195278";"2";"8554864";"613";"9383734";"613";"12828264";"614";"16696992";"614"
"Ukraine";"818524";"";"2224600";"";"3692700";"";"6498423";"";"13735000";"";"30013500";"";"49076239";"615";"55240400";"615";"55681476";"616";"54942815";"616";"53919545";"616";"55566881";"617"
"United Arab Emirates";"1428115";"618";"1909303";"618";"2428071";"618";"2972331";"618";"3683117";"618";"4534143";"618";"5519293";"57";"7731508";"57";"9357735";"57";"10671878";"57";"10926019";"58";"11727401";"58"
"United Kingdom";"43452000";"619";"46283000";"619";"49228000";"619";"54256221";"619";"59687915";"619";"65471665";"619";"70077926";"619";"73836210";"43,619";"76735443";"620";"80255445";"620";"81115492";"620";"81612000";"620"
"United Republic of Tanzania";"110518";"621";"275560";"621";"606859";"621";"1298000";"622";"1942000";"622";"2964000";"622";"5609000";"622";"8252000";"622";"13006793";"16,622";"17469486";"622";"20983853";"623";"25666455";"623"
"United States";"109478031";"624";"128500000";"624";"141800000";"624";"160637000";"624";"184819000";"624";"203700000";"624";"229600000";"624";"249300000";"625";"261300000";"625";"274300000";"625";"278900000";"625,626";"331600000";"627"
"United States Virgin Islands";"35000";"2";"41000";"2";"45150";"2";"49300";"2";"64200";"2";"80300";"2";"";"";"";"";"";"";"";"";"";"";"";""
"Uruguay";"410787";"";"519991";"";"513528";"";"497530";"";"599768";"";"1154923";"";"2330011";"";"3004323";"628";"3507816";"628,629";"4111560";"629,630";"4437158";"631,629";"4757425";"631,632"
"Uzbekistan";"53128";"633";"128012";"633";"186900";"633";"320815";"633";"544100";"633";"720000";"633";"2530365";"634";"5691458";"633";"12375274";"633";"16417914";"633";"20952000";"2";"25441789";"633"
"Vanuatu";"365";"635";"350";"635";"4900";"635";"7800";"635";"10504";"635";"12692";"635";"15000";"2";"26000";"519,520";"36000";"2";"126452";"636";"285300";"2";"";""
"Venezuela";"5447172";"";"6472584";"";"6541894";"";"7015121";"";"8420980";"";"12495721";"";"18789466";"";"23820133";"265";"27414377";"265";"28123570";"265";"27880132";"469";"28781999";"387"
"Viet Nam";"788559";"637";"1251195";"637";"1902388";"637";"2742000";"637";"4960000";"638";"9593200";"638";"18892480";"639";"45024048";"639";"74872310";"639";"98223980";"639";"111570201";"639";"127318045";"639"
"Yemen";"32042";"";"147837";"";"486667";"";"675162";"";"1476000";"640";"2277559";"640";"2977781";"640";"4349000";"640";"6445000";"640";"8313000";"640";"11085000";"640";"11668000";"640"
"Zambia";"98853";"641";"121200";"641";"139092";"642";"241000";"642";"464354";"642";"949559";"642";"1663328";"642";"2639026";"642";"3539003";"642";"4406682";"643";"5446991";"643";"8164553";"643"
"Zimbabwe";"266441";"";"314002";"";"338779";"";"363651";"";"425745";"";"647110";"";"849146";"644";"1225654";"645";"1654721";"645";"3991000";"646";"7700000";"646";"9200000";"646"